<?xml version="1.0" encoding="utf-8"?>
<!-- Generator: Adobe Illustrator 23.0.2, SVG Export Plug-In . SVG Version: 6.00 Build 0)  -->
<svg version="1.1" id="Layer_1" xmlns="http://www.w3.org/2000/svg" xmlns:xlink="http://www.w3.org/1999/xlink" x="0px" y="0px"
	 viewBox="0 0 512 512" style="enable-background:new 0 0 512 512;" xml:space="preserve">
<style type="text/css">
	.st0{fill:#FFFFFF;}
</style>
<g>
	<path class="st0" d="M288.8,170.4c2.9-11.3,3-23.3,5-41.2c-24.8,19.1-44,34-66.3,51.3c15.6,0,30.2-4.5,36.7,0.9
		C282.8,196.4,285.7,182.5,288.8,170.4z"/>
	<path class="st0" d="M100.1,426.3c24.4,22.9,53.9,40.6,86.6,50.9c1.8-41.4,8.5-81.8,29.2-119.5c16.1-29.2,40.2-45.1,75-42.9
		c18,1.1,36.2,0.6,54.2,0c22.4-0.7,35.8-12.5,40.2-30c-54,0-108-2.8-161.6,0.9c-46.3,3.2-88.2,35-107.8,73c5,1.7,9.7,3.3,13.5,4.6
		c-8,15.9-17.4,31.4-23.8,48C103.4,417.2,101.5,422.1,100.1,426.3z"/>
	<path class="st0" d="M98.5,282.4c9.1-53.7,44-92.3,93.1-117.7c36.7-19,72.5-39.9,113.9-62.7c-1.3,27.1-3.3,49.3-3.1,71.5
		c0.1,8.9,2.5,19.5,7.8,26.3c24.2,31.6,50.6,61,95.4,57.6c1.4,51.1-20.9,74.6-68,74.7c-18.6,0-37.1,0-55.7,0
		c-1.2,2.3-2.4,4.6-3.7,6.9c9.3,8.1,17.9,17.3,28.1,24.1c33.4,22.4,67.7,43.5,101,66.1c45.8-41.4,74.6-101.3,74.6-168
		c0-125.1-101.4-226.5-226.5-226.5c-125.1,0-226.5,101.4-226.5,226.5c0,57.9,21.8,110.7,57.5,150.7
		C88.2,368.6,91.3,325.1,98.5,282.4z"/>
</g>
</svg>
